{
    "title": "uxrandr",
    "hosts": [ ],
    "os": [
        {
            "name": "linux",
            "title": "Linux"
        }
    ],
    "userGuide": "",
    "apiReference": "",
    "website": "https://rxlaboratory.org/tools/uxrandr/",
    "description": "Another UI for xrandr focused on color management.",
    "tutorials": ""
}